Place,WeightClassKg,Name,Equipment,Team,BodyweightKg,Squat1Kg,Squat2Kg,Squat3Kg,Best3SquatKg,Bench1Kg,Bench2Kg,Bench3Kg,Best3BenchKg,Deadlift1Kg,Deadlift2Kg,Deadlift3Kg,Best3DeadliftKg,TotalKg,Division,Sex,Event
1,84+,Marion Opstad,Raw,Fræna AK,88.62,120,127.5,132.5,132.5,80,85,87.5,87.5,130,-142.5,-142.5,130.0,350,Junior 19-23,F,SBD
1,84,Oda Synneve Sande,Raw,Fræna AK,82.52,105,110,115,115.0,60,65,-67.5,65.0,160,170,180,180.0,360,Open,F,SBD
2,84,Marthe Stavik Aas,Raw,Fræna AK,76.50,,,,,70,77.5,85,85.0,,,,,85,Open,F,B
1,84,Gro-Berit Stavheim,Single-ply,Sjøholt AK,79.75,165,175,-180,175.0,80,90,-92.5,90.0,150,160,167.5,167.5,432.5,Master 50-59,F,SBD
1,120,Kristian Uren Bjørlykhaug,Single-ply,Sjøholt AK,106.40,210,225,240,240.0,172.5,182.5,-190,182.5,-190,202.5,,202.5,625,Junior 19-23,M,SBD
1,93,Florian Z Aresvik,Raw,Kristiansund KK,90.10,,,,,120,-122.5,,120.0,,,,,120,Open,M,B
1,105,Edvard Heimen,Raw,Fræna AK,104.90,,,,,185,195,200,200.0,,,,,200,Open,M,B
