Division,WeightClassKg,Place,Name,Team,BodyweightKg,Best3SquatKg,Best3BenchKg,Best3DeadliftKg,TotalKg,Equipment,Event,Sex
Boys,52,1,Cesar Ledesma,Burleson,47.63,108.86,63.5,120.2,292.57,Single-ply,SBD,M
Boys,56,1,Alex Renteria,Burleson,54.16,90.72,49.9,111.13,251.74,Single-ply,SBD,M
Boys,60,1,Jacob Moss,Burleson,57.88,136.08,79.38,136.08,351.53,Single-ply,SBD,M
Boys,60,2,Dylan Quintero,Burleson Centennial,56.34,95.25,45.36,129.27,269.89,Single-ply,SBD,M
Boys,60,3,Michael Scherrer,Burleson,57.33,104.33,52.16,102.06,258.55,Single-ply,SBD,M
Boys,67.5,1,Chandler Brown,Burleson,65.32,142.88,95.25,147.42,385.55,Single-ply,SBD,M
Boys,67.5,2,Jacob Hughes #3,Joshua,66.22,120.2,95.25,136.08,351.53,Single-ply,SBD,M
Boys,67.5,3,Thomas Nivens,Burleson,66.04,124.74,68.04,124.74,317.51,Single-ply,SBD,M
Boys,67.5,DQ,Dakota Tidwell,Burleson,60.69,106.59,,,,Single-ply,SBD,M
Boys,67.5,DQ,Jonathan Boske,Burleson Centennial,62.41,86.18,,,,Single-ply,SBD,M
Boys,75,1,Daniel Jordan,Burleson Centennial,70.76,120.2,81.65,131.54,333.39,Single-ply,SBD,M
Boys,75,DQ,Brennan Streveck,Joshua,68.04,102.06,,,,Single-ply,SBD,M
Boys,82.5,1,Devin Stevenson,Burleson,79.92,176.9,117.93,208.65,503.49,Single-ply,SBD,M
Boys,82.5,2,Hunter Cunningham,Burleson,80.01,176.9,99.79,188.24,464.93,Single-ply,SBD,M
Boys,82.5,3,Jc Mueller,Burleson,77.29,158.76,95.25,181.44,435.45,Single-ply,SBD,M
Boys,82.5,4,Wesley Free,Cleburne,80.2,170.1,102.06,142.88,415.04,Single-ply,SBD,M
Boys,82.5,5,Gerardo Vasquez,Burleson Centennial,75.93,120.2,88.45,167.83,376.48,Single-ply,SBD,M
Boys,82.5,6,Austin Sepulvada,Cleburne,76.02,115.67,70.31,142.88,328.85,Single-ply,SBD,M
Boys,82.5,DQ,Jacob Martin,Burleson Centennial,80.38,129.27,,133.81,,Single-ply,SBD,M
Boys,90,1,Genaro Vital,Cleburne,87.82,183.7,106.59,158.76,449.06,Single-ply,SBD,M
Boys,90,2,Keairis Thompson,North Crowley,86.73,154.22,106.59,181.44,442.25,Single-ply,SBD,M
Boys,90,3,Joshua Walton,Burleson Centennial,89.36,120.2,108.86,142.88,371.95,Single-ply,SBD,M
Boys,90,4,Ty Quigley,Midlothian,87.91,136.08,83.91,124.74,344.73,Single-ply,SBD,M
Boys,90,5,Juilo Lozano,North Crowley,87.72,70.31,61.23,108.86,240.4,Single-ply,SBD,M
Boys,90,DQ,Jared Johnson,Joshua,87.72,142.88,,,,Single-ply,SBD,M
Boys,100,1,Blake Metts,Burleson,93.8,172.37,113.4,179.17,464.93,Single-ply,SBD,M
Boys,100,2,Jacob Hardie,Burleson,97.61,147.42,99.79,142.88,390.09,Single-ply,SBD,M
Boys,100,3,Jose Balderrama,Midlothian,97.25,149.69,83.91,145.15,378.75,Single-ply,SBD,M
Boys,100,4,Hayden Fisher,Midlothian,93.26,113.4,77.11,124.74,315.25,Single-ply,SBD,M
Boys,100,DQ,Jaylan Sharp,North Crowley,92.8,,,,,Single-ply,SBD,M
Boys,110,1,Jordan Mauntel,Burleson,107.59,195.04,124.74,219.99,539.77,Single-ply,SBD,M
Boys,110,DQ,Tyler Massingill,Burleson,106.5,,,,,Single-ply,SBD,M
Boys,110,3,Jayden Chaney,Joshua,108.95,129.27,102.06,181.44,412.77,Single-ply,SBD,M
Boys,110,4,Tanner Newman,Midlothian,99.97,154.22,83.91,158.76,396.89,Single-ply,SBD,M
Boys,110,5,Tucker Riker,Burleson Centennial,104.51,140.61,90.72,154.22,385.55,Single-ply,SBD,M
Boys,125,1,Dreon Harris,Burleson,113.31,204.12,104.33,217.72,526.17,Single-ply,SBD,M
Boys,125,2,Tyler Meksavanh,Burleson Centennial,121.93,172.37,99.79,151.95,424.11,Single-ply,SBD,M
Boys,125,3,Jacob Harmon,Burleson,109.86,156.49,99.79,154.22,410.5,Single-ply,SBD,M
Boys,125,4,Clayton Mitchell,North Crowley,119.2,136.08,102.06,167.83,405.97,Single-ply,SBD,M
Boys,125,5,Tyler Washington,North Crowley,118.21,136.08,81.65,158.76,376.48,Single-ply,SBD,M
Boys,125,DQ,Keisten White,Burleson Centennial,112.13,149.69,,,,Single-ply,SBD,M
Boys,125+,1,James Bell,North Crowley,136.8,170.1,108.86,172.37,451.32,Single-ply,SBD,M
Boys,125+,2,Terrance Branch,North Crowley,135.53,131.54,102.06,170.1,403.7,Single-ply,SBD,M
