Event,Sex,Name,State,BodyweightKg,WeightClassKg,Division,Best3SquatKg,Best3BenchKg,Best3DeadliftKg,TotalKg,Equipment,Place
SBD,M,Dexter Magri,MB,73.4,75,Sub-Junior,150.0,90.0,210.0,450.0,Single-ply,1
SBD,M,Mathew Sedor,MB,108.8,110,Sub-Junior,175.0,147.5,185.0,507.5,Single-ply,1
SBD,M,Steve Powell,MB,89.2,90,Open,270.0,190.0,285.0,745.0,Single-ply,1
SBD,F,Batten Annette,MB,54.5,56,Open,120.0,60.0,145.0,325.0,Single-ply,1
SBD,M,Trevor Winfield,MB,116.7,125,Open,210.0,200.0,175.0,585.0,Single-ply,1
SBD,M,Harvey Hanec,MB,98,100,Master 2,60.0,150.0,65.0,275.0,Single-ply,1
SBD,F,Penha S. Andrade,MB,53.5,56,Master 1,107.5,60.0,127.5,295.0,Single-ply,1
SBD,M,Brock Haywood,MB,130,125+,Master 1,287.5,177.5,260.0,725.0,Single-ply,1
SBD,M,Chris Thomas,MB,82.5,82.5,Junior,207.5,142.5,192.5,542.5,Single-ply,1
