Division,WeightClassKg,Place,Name,Team,BodyweightKg,Best3SquatKg,Best3BenchKg,Best3DeadliftKg,TotalKg,Equipment,Event,Sex
Boys,52,1,Jose Garcia,Brownfield,50.26,97.52,65.77,115.67,278.96,Single-ply,SBD,M
Boys,52,2,Joseph Hernandez,Sundown,51.26,113.4,56.7,97.52,267.62,Single-ply,SBD,M
Boys,56,1,Brett Salas,Lubbock Cooper,55.29,154.22,72.57,170.1,396.89,Single-ply,SBD,M
Boys,56,2,Landon Morgan,Sundown,56,129.27,72.57,140.61,342.46,Single-ply,SBD,M
Boys,56,DQ,Dusty Rowcliffe,Lubbock Roosevelt,54.48,97.52,,,,Single-ply,SBD,M
Boys,60,1,Cailer Woolam,Lubbock Cooper,59.51,136.08,83.91,167.83,387.82,Single-ply,SBD,M
Boys,60,2,Zack Gass,Lubbock Cooper,58.6,136.08,81.65,161.03,378.75,Single-ply,SBD,M
Boys,60,3,Markee Rodriguez,Brownfield,58.42,142.88,88.45,133.81,365.14,Single-ply,SBD,M
Boys,60,4,Jonathan Flores,Meadow,58.47,124.74,63.5,142.88,331.12,Single-ply,SBD,M
Boys,60,5,Justin Forsythe,Tahoka,60,136.08,68.04,120.2,324.32,Single-ply,SBD,M
Boys,60,6,Chris Mendez,Lubbock Roosevelt,59.24,124.74,68.04,127.01,319.78,Single-ply,SBD,M
Boys,60,7,Rhett Wilkes,Sundown,57.42,108.86,72.57,113.4,294.84,Single-ply,SBD,M
Boys,60,8,Justyn Williams,Tahoka,59.15,117.93,68.04,106.59,292.57,Single-ply,SBD,M
Boys,60,9,Brayan Jacquez,Sundown,60,99.79,52.16,122.47,274.42,Single-ply,SBD,M
Boys,60,10,Shelby Skaggs,Brownfield,56.47,102.06,63.5,106.59,272.16,Single-ply,SBD,M
Boys,67.5,1,Michael Prieto,Lubbock Cooper,66.77,163.29,92.99,179.17,435.45,Single-ply,SBD,M
Boys,67.5,2,Nick Aguirre,Tahoka,66.9,151.95,120.2,156.49,428.64,Single-ply,SBD,M
Boys,67.5,3,Julian Paiz,Sundown,64.55,154.22,86.18,158.76,399.16,Single-ply,SBD,M
Boys,67.5,4,Adrien Martinez,Brownfield,64.55,145.15,83.91,151.95,381.02,Single-ply,SBD,M
Boys,67.5,5,Trystan Hilger,Tahoka,66.59,129.27,97.52,142.88,369.68,Single-ply,SBD,M
Boys,67.5,6,Paul Bright,Brownfield,60.65,145.15,74.84,147.42,367.41,Single-ply,SBD,M
Boys,67.5,7,Joseph Quevedo,Lubbock Roosevelt,67.09,124.74,88.45,140.61,353.8,Single-ply,SBD,M
Boys,67.5,8,Luke Hawthorne,Tahoka,65.77,136.08,68.04,136.08,340.19,Single-ply,SBD,M
Boys,67.5,9,Keagan Daniel,Lubbock Roosevelt,62.55,113.4,68.04,140.61,322.05,Single-ply,SBD,M
Boys,67.5,10,Cesar Retana,Meadow,66.09,115.67,58.97,140.61,315.25,Single-ply,SBD,M
Boys,67.5,11,Andrew Castillo,Meadow,64.59,113.4,65.77,127.01,306.17,Single-ply,SBD,M
Boys,67.5,12,Kordell Baker,Tahoka,63.82,102.06,68.04,117.93,288.03,Single-ply,SBD,M
Boys,67.5,13,Nathan Vasquez,Lubbock Cooper,66.95,102.06,52.16,120.2,274.42,Single-ply,SBD,M
Boys,67.5,DQ,Mikey Pesina,Lubbock Roosevelt,62.51,88.45,,,,Single-ply,SBD,M
Boys,75,1,Kyle Reno,Tahoka,73.62,181.44,122.47,206.38,510.29,Single-ply,SBD,M
Boys,75,2,Roland Zamora,Meadow,74.84,172.37,97.52,185.97,455.86,Single-ply,SBD,M
Boys,75,3,Luis Torrez,Meadow,73.94,154.22,88.45,156.49,399.16,Single-ply,SBD,M
Boys,75,4,Robby Escobar,Sundown,69.22,163.29,81.65,151.95,396.89,Single-ply,SBD,M
Boys,75,5,Rafael Urias,Meadow,73.94,145.15,74.84,145.15,365.14,Single-ply,SBD,M
Boys,75,6,Colton Barclay,Meadow,71.99,129.27,72.57,145.15,347,Single-ply,SBD,M
Boys,75,7,Tanner McKinney,Lubbock Roosevelt,69.17,115.67,83.91,131.54,331.12,Single-ply,SBD,M
Boys,75,DQ,Jacob Bray,Sundown,73.84,108.86,,,,Single-ply,SBD,M
Boys,82.5,1,Bryan Vela,Meadow,80.92,233.6,129.27,244.94,607.81,Single-ply,SBD,M
Boys,82.5,2,Pete Munoz,Brownfield,78.83,181.44,113.4,163.29,458.13,Single-ply,SBD,M
Boys,82.5,3,Adrian Soto,Meadow,77.38,167.83,95.25,183.7,446.79,Single-ply,SBD,M
Boys,82.5,4,Devin Elmore,Sundown,82.05,188.24,102.06,149.69,439.98,Single-ply,SBD,M
Boys,82.5,5,Tim Rodriguez,Sundown,77.38,154.22,74.84,170.1,399.16,Single-ply,SBD,M
Boys,82.5,6,Bryce McHam,Sundown,81.96,149.69,88.45,147.42,385.55,Single-ply,SBD,M
Boys,82.5,7,Bradley Castillon,Tahoka,79.88,136.08,92.99,142.88,371.95,Single-ply,SBD,M
Boys,82.5,8,Daniel Paiva,Brownfield,82.1,122.47,92.99,149.69,365.14,Single-ply,SBD,M
Boys,82.5,9,Issac Rodriguez,Lubbock Roosevelt,82.33,124.74,92.99,147.42,365.14,Single-ply,SBD,M
Boys,82.5,10,Victor Rodriguez,Lubbock Roosevelt,76.34,124.74,83.91,142.88,351.53,Single-ply,SBD,M
Boys,82.5,DQ,Jamie Bingham,Tahoka,76.48,199.58,,,,Single-ply,SBD,M
Boys,90,1,Fili Jaquez,Lubbock Cooper,89.4,217.72,136.08,213.19,566.99,Single-ply,SBD,M
Boys,90,2,Tim Bergara,Brownfield,87.04,195.04,131.54,199.58,526.17,Single-ply,SBD,M
Boys,90,3,Montana Vega,Lubbock Cooper,88.86,156.49,106.59,181.44,444.52,Single-ply,SBD,M
Boys,90,4,Julian Hernandez,Lubbock Roosevelt,88.41,142.88,92.99,158.76,394.63,Single-ply,SBD,M
Boys,90,5,Brady McClellen,Lubbock Cooper,83.78,124.74,81.65,145.15,351.53,Single-ply,SBD,M
Boys,100,1,Spencer Chance,Sundown,91.94,217.72,127.01,204.12,548.85,Single-ply,SBD,M
Boys,100,2,Sammy Sambrano,Brownfield,94.26,181.44,111.13,167.83,460.4,Single-ply,SBD,M
Boys,100,3,Andrew Clayman,Brownfield,98.84,181.44,113.4,156.49,451.32,Single-ply,SBD,M
Boys,100,4,Eddie Aguirre,Brownfield,96.98,151.95,90.72,151.95,394.63,Single-ply,SBD,M
Boys,110,1,Joey Elizardo,Brownfield,109.72,233.6,158.76,240.4,632.76,Single-ply,SBD,M
Boys,110,2,Caelan Decker,Tahoka,109.86,149.69,115.67,156.49,421.84,Single-ply,SBD,M
Boys,110,3,Daniel Rivera,Lubbock Roosevelt,102.51,154.22,90.72,163.29,408.23,Single-ply,SBD,M
Boys,110,4,Jim Trevino,Lubbock Roosevelt,105.64,156.49,90.72,154.22,401.43,Single-ply,SBD,M
Boys,110,5,Efrain Ramirez,Tahoka,108.09,131.54,68.04,142.88,342.46,Single-ply,SBD,M
Boys,125,1,Micheal Johnson,Lubbock Cooper,113.9,199.58,113.4,208.65,521.63,Single-ply,SBD,M
Boys,125,2,Mike Perez,Brownfield,121.25,199.58,111.13,192.78,503.49,Single-ply,SBD,M
Boys,125,3,Eric Garcia,Lubbock Roosevelt,123.88,195.04,108.86,172.37,476.27,Single-ply,SBD,M
Boys,125,4,Riley Thompson,Sundown,120.07,165.56,104.33,174.63,444.52,Single-ply,SBD,M
Boys,125,5,Jonathan Aguilar,Lubbock Roosevelt,114.76,133.81,86.18,124.74,344.73,Single-ply,SBD,M
Boys,125+,1,Dillon Beesinger,Lubbock Cooper,137.08,272.16,158.76,215.46,646.37,Single-ply,SBD,M
Boys,125+,2,Garrett McCarty,Lubbock Roosevelt,151.5,124.74,83.91,165.56,374.21,Single-ply,SBD,M
