Sex,Equipment,Event,Division,WeightClassKg,Name,BodyweightKg,Best3BenchKg,TotalKg,Place
F,Raw,B,Amateur Open,48,Daria Kosenko,45.8,45,45,5
F,Raw,B,Amateur Open,48,Svetlana Babenkova,45,47.5,47.5,4
F,Raw,B,Amateur Open,48,Maria Leonova,47.7,42.5,42.5,6
F,Raw,B,Amateur Junior 20-23,48,Daria Kosenko,45.8,45,45,1
F,Raw,B,Amateur Open,52,Ian Khomich,51,67.5,67.5,1
F,Raw,B,Amateur Open,52,Nadia Petrova,51.6,55,55,2
F,Raw,B,Amateur Open,52,Natalia Ezhkina,49.4,50,50,3
F,Raw,B,Amateur Teen 16-17,52,Karina Chervatyuk,50,40,40,1
F,Raw,B,Amateur Teen 16-17,52,Julia Rudenko,49.4,32.5,32.5,2
F,Raw,B,Amateur Open,56,Elena Lysenko,54,72.5,72.5,1
F,Raw,B,Amateur Open,56,Alla Druzhinovich,55.3,50,50,4
F,Raw,B,Amateur Open,52,Elena Tarasova,52,60,60,2
F,Raw,B,Amateur Open,56,Pauline Borsch,54.7,52.5,52.5,3
F,Raw,B,Amateur Junior 20-23,56,Xenia Raychinets,55.7,50,50,1
F,Raw,B,Amateur Junior 20-23,56,Darya Stepanenko,56,42.5,42.5,3
F,Raw,B,Amateur Junior 20-23,56,Natalia Osipova,55.4,47.5,47.5,2
F,Raw,B,Amateur Junior 20-23,56,Maria Prishlyak,53.4,37.5,37.5,4
F,Raw,B,Amateur Open,60,Tamara Goncharova,58.2,50,50,2
F,Raw,B,Amateur Open,60,Maria Himey,60,67.5,67.5,1
F,Raw,B,Amateur Open,67.5,Elena Tschubenko,65.2,67.5,67.5,1
F,Raw,B,Amateur Open,67.5,Margarita Gavrylenko,64.8,65,65,2
F,Raw,B,Amateur Open,67.5,Galina Rogatskaya,66.3,,,DQ
F,Single-ply,B,Amateur Open,67.5,Galina Rogatskaya,66.3,90,90,1
M,Raw,B,Amateur Open,52,Anatoly Petrosyan,51.1,75,75,1
M,Raw,B,Amateur Teen 13-15,52,Yevgen Nazukin,49,65,65,1
M,Raw,B,Amateur Open,52,Yevgen Nazukin,49,65,65,2
M,Raw,B,Amateur Open,56,Dmitry Kutsaenko,54.5,70,70,1
M,Raw,B,Amateur Junior 20-23,56,Dmitry Kutsaenko,54.5,70,70,1
M,Raw,B,Amateur Teen 13-15,60,Dmitry Myloserdov,59.3,50,50,2
M,Raw,B,Amateur Teen 13-15,60,Bogdan Kravchuk,59.4,85,85,1
M,Single-ply,B,Amateur Teen 16-17,75,Nikolai Belov,74.7,150,150,1
M,Raw,B,Amateur Open,67.5,Anatoly Tkachuk,66,110,110,5
M,Raw,B,Amateur Open,67.5,Alexander Bezruk,67.3,130,130,2
M,Raw,B,Amateur Open,67.5,Alexander Pratasenya,67.3,125,125,3
M,Raw,B,Amateur Open,67.5,Alexander Shlyahtun,66.7,112.5,112.5,4
M,Raw,B,Amateur Open,67.5,Sabri Ibraimov,65.1,130,130,1
M,Raw,B,Amateur Junior 20-23,67.5,Sergey Alekseev,62,107.5,107.5,4
M,Raw,B,Amateur Junior 20-23,67.5,Alexander Bezruk,63.5,130,130,1
M,Raw,B,Amateur Junior 20-23,67.5,Sergey Chernik,65,120,120,3
M,Raw,B,Amateur Junior 20-23,67.5,Sabri Ibraimov,65,130,130,2
M,Raw,B,Amateur Teen 16-17,67.5,Murat Khalilov,66.2,110,110,1
M,Raw,B,Amateur Teen 16-17,67.5,Vitaly Degtyarenko,66.1,82.5,82.5,2
M,Single-ply,B,Amateur Open,82.5,Igor Andrusik,79.3,160,160,2
M,Single-ply,B,Amateur Open,82.5,Denis Ryadinskiy,81.3,170,170,1
M,Raw,B,Amateur Open,75,Alexander Chupahin,69.6,130,130,4
M,Raw,B,Amateur Open,75,Sergey Nikulin,73.2,130,130,5
M,Raw,B,Amateur Open,75,Artem Stasyuk,73.9,155,155,1
M,Raw,B,Amateur Open,75,Eugene Liang,74,145,145,2
M,Raw,B,Amateur Open,75,Ivan Stepanchenko,70.3,135,135,3
M,Raw,B,Amateur Junior 20-23,75,Sergey Nikulin,73.2,130,130,3
M,Raw,B,Amateur Junior 20-23,75,Artem Stasyuk,73.9,155,155,1
M,Raw,B,Amateur Junior 20-23,75,Alexander Chupahin,69.6,130,130,2
M,Raw,B,Amateur Teen 18-19,75,Ruslan Chuchvaha,73.1,135,135,1
M,Raw,B,Amateur Teen 18-19,75,Alexander Zakadychny,74.9,115,115,4
M,Raw,B,Amateur Teen 18-19,75,Nikita Litovchenko,70,80,80,5
M,Raw,B,Amateur Teen 18-19,75,Daniel Ostapenko,75,125,125,3
M,Raw,B,Amateur Teen 18-19,75,Polat Khalilov,71.6,125,125,2
M,Multi-ply,B,Amateur Open,90,Michael Ulitsky,88,195,195,1
M,Multi-ply,B,Amateur Open,90,Denis Mazur,87,160,160,3
M,Multi-ply,B,Amateur Open,90,Vyacheslav Bordiyanu,85.1,180,180,2
M,Multi-ply,B,Amateur Open,90,Denis Mazur,87,160,160,4
M,Raw,B,Amateur Open,82.5,Dmitry Vorobey,80.4,152.5,152.5,3
M,Raw,B,Amateur Open,82.5,Vitaly Yurchenko,79,150,150,4
M,Raw,B,Amateur Open,82.5,Igor Germanovich,82,157.5,157.5,1
M,Raw,B,Amateur Open,82.5,Ivan Korobko,78.4,155,155,2
M,Raw,B,Amateur Open,82.5,Paul Leontiev,80.8,,,DQ
M,Raw,B,Amateur Open,82.5,Alexander Kovalenko,77,,,DQ
M,Raw,B,Amateur Open,82.5,Oleg Polishchuk,82,145,145,6
M,Raw,B,Amateur Open,82.5,Artem Machuha,79.7,150,150,5
M,Raw,B,Amateur Teen 16-17,82.5,Eugene Bobko,81,125,125,1
M,Raw,B,Amateur Teen 16-17,82.5,Stanislav Danets,80.1,120,120,2
M,Raw,B,Amateur Teen 18-19,82.5,Maxim Rebalka,82.1,122.5,122.5,1
M,Raw,B,Amateur Teen 18-19,82.5,Vladimir Guriev,78.5,100,100,2
M,Raw,B,Amateur Junior 20-23,82.5,Alexander Gonchar,80.2,135,135,4
M,Raw,B,Amateur Junior 20-23,82.5,Igor Germanovich,82,157.5,157.5,1
M,Raw,B,Amateur Junior 20-23,82.5,Dmitry Frolenko,80,140,140,3
M,Raw,B,Amateur Junior 20-23,82.5,Oleg Polishchuk,82,145,145,2
M,Raw,B,Amateur Master 40-44,82.5,Vitali Poulin,81.8,155,155,1
M,Raw,B,Amateur Master 50-54,82.5,Michael Sizykh,78.2,112.5,112.5,1
M,Multi-ply,B,Amateur Master 50-54,82.5,Vladimir Shumakov,80,150,150,1
M,Raw,B,Amateur Master 65-69,82.5,Alexander Nikitin,79,90,90,1
M,Multi-ply,B,Amateur Open,100,Yuri Muzychenko,93.6,160,160,1
M,Raw,B,Amateur Open,90,Gregory Kalypin,89.6,162.5,162.5,4
M,Raw,B,Amateur Open,90,Michael Ulitsky,88,150,150,7
M,Raw,B,Amateur Open,90,Oleg Sarychev,88.7,132.5,132.5,10
M,Raw,B,Amateur Open,90,Alexander Starodubsev,85,140,140,8
M,Raw,B,Amateur Open,90,Dmitry Karsakov,84,150,150,6
M,Raw,B,Amateur Open,90,Vadim Belik,88.2,180,180,2
M,Raw,B,Amateur Open,90,Denis Mazur,87.3,140,140,9
M,Raw,B,Amateur Open,90,Vyacheslav Bordiyanu,85.3,157.5,157.5,5
M,Raw,B,Amateur Open,90,Gore Kazarian,90,175,175,3
M,Raw,B,Amateur Open,90,George Sasania,87.8,190,190,1
M,Raw,B,Amateur Junior 20-23,90,Vitali Pedan,88.2,150,150,4
M,Raw,B,Amateur Junior 20-23,90,Gregory Kalypin,89.6,162.5,162.5,2
M,Raw,B,Amateur Junior 20-23,90,Dmitry Karsakov,84,150,150,3
M,Raw,B,Amateur Junior 20-23,90,Andrei Kravchenko,84.9,132,132,5
M,Raw,B,Amateur Junior 20-23,90,Mikhail Seregin,87.8,115,115,6
M,Raw,B,Amateur Junior 20-23,90,George Sasania,87.8,190,190,1
M,Raw,B,Amateur Teen 16-17,90,Enver Kurtumerov,86.7,100,100,1
M,Raw,B,Amateur Teen 18-19,90,Eugene Pogrebnyak,88.1,132.5,132.5,3
M,Raw,B,Amateur Teen 18-19,90,Roman Pohvatko,85.4,115,115,4
M,Raw,B,Amateur Teen 18-19,90,Vyacheslav Yakovlev,89.8,150,150,1
M,Raw,B,Amateur Teen 18-19,100,Roman Nagornyy,93.1,150,150,2
M,Raw,B,Amateur Master 40-44,90,Michael Ulitsky,88,150,150,1
M,Raw,B,Police/Fire/Military Amateur Open,90,Denis Mazur,87.3,140,140,1
M,Raw,B,Amateur Open,100,Sergei Kondrashenko,95.8,190,190,2
M,Raw,B,Amateur Open,100,Yevgeny Vasilyev,91.5,127.5,127.5,4
M,Raw,B,Amateur Open,100,Andrew Yelenov,97.6,195,195,1
M,Raw,B,Amateur Open,100,Dmitry Pavlenko,92.5,145,145,3
M,Raw,B,Amateur Junior 20-23,100,Alexander Shaidulin,94.4,120,120,3
M,Raw,B,Amateur Junior 20-23,100,Constantine Shershnyov,90.9,155,155,2
M,Raw,B,Amateur Junior 20-23,100,Dmitry Gosman,100,162.5,162.5,1
M,Raw,B,Amateur Master 50-54,100,Nikolai Gorbachev,92.3,140,140,1
M,Raw,B,Amateur Master 55-59,100,Sergey Cherny,95.3,115,115,1
M,Raw,B,Police/Fire/Military Amateur Open,100,Sergei Kondrashenko,95.8,190,190,1
M,Raw,B,Police/Fire/Military Amateur Open,100,Dmitry Zherebetsky,100,130,130,2
M,Raw,B,Amateur Open,110,Alexander Kisly,110,212.5,212.5,1
M,Raw,B,Amateur Open,110,Maxim Edrenikov,101,140,140,2
M,Multi-ply,B,Amateur Master 40-44,125,Alexander Chekachkov,116,,,DQ
M,Raw,B,Amateur Open,125,Eugene Oleksenko,111,150,150,1
M,Raw,B,Amateur Master 40-44,125,Alexander Chekachkov,116,150,150,1
M,Raw,B,Amateur Junior 20-23,125,Victor Matrosov,114,140,140,1
M,Raw,B,Amateur Open,140,Oleg Afanasyev,130,187.5,187.5,1
F,Raw,B,Pro Open,56,Victoria Sokolova,55.3,80,80,1
F,Raw,B,Pro Open,60,Svetlana Dergaputskaya,60,85,85,1
F,Raw,B,Pro Open,90,Lyudmila Gaiduchenko,90,157.5,157.5,1
M,Raw,B,Pro Open,60,Nikonov Denys,58.2,95,95,1
M,Raw,B,Pro Open,67.5,Dmitry Veremeyenko,66.5,85,85,3
M,Raw,B,Pro Open,67.5,Sergei Baharev,67.5,135,135,1
M,Raw,B,Pro Open,67.5,Kurtis Igor,63.5,105,105,2
M,Raw,B,Pro Master 60-64,75,Pismennyy Sergiy,71.6,105,105,1
M,Single-ply,B,Pro Open,82.5,Alexander Belkin,80,132.5,132.5,1
M,Raw,B,Pro Open,82.5,Valentin Malikov,79.9,197.5,197.5,1
M,Raw,B,Pro Open,82.5,Andrew Yarmola,80.5,180,180,2
M,Raw,B,Pro Open,82.5,Andrew Tomah,82.4,150,150,4
M,Raw,B,Pro Open,82.5,Alexander Maximov,82.2,150,150,3
M,Raw,B,Pro Master 55-59,82.5,Volodymyr Man'ko,82.5,110,110,1
M,Multi-ply,B,Pro Open,90,Eugene Korotych,86.3,172.5,172.5,3
M,Multi-ply,B,Pro Open,90,Denis Borodenko,89,220,220,1
M,Multi-ply,B,Pro Open,90,Konstantin Chernov,83.3,215,215,2
M,Raw,B,Pro Open,90,Vyacheslav Malyushitsky,87.2,180,180,3
M,Raw,B,Pro Open,90,Evgen Menesenko,88.4,190,190,1
M,Raw,B,Pro Open,90,Oleksiy Ksandopulo,88.5,182.5,182.5,2
M,Raw,B,Pro Open,90,Sergey Lunev,85,160,160,4
M,Raw,B,Pro Open,90,Denis Malorodov,88.5,160,160,5
M,Raw,B,Pro Open,90,Denis Borodenko,89,150,150,6
M,Raw,B,Pro Master 45-49,90,Vyacheslav Gorbunov,88,160,160,1
M,Raw,B,Pro Master 55-59,90,Yuri Kulikov,87,117.5,117.5,1
M,Raw,B,Pro Master 60-64,90,Fix Yefim,87,80,80,1
M,Raw,B,Pro Open,100,Aleksandr Scherbakov,92.5,225,225,2
M,Raw,B,Pro Open,90,Victor Babenko,90,155,155,5
M,Raw,B,Pro Open,100,Michael Strelenko,95,230,230,1
M,Raw,B,Pro Open,100,Ilya Kiktev,100,210,210,3
M,Raw,B,Pro Open,100,Artem Taynov,93,182.5,182.5,4
M,Raw,B,Pro Master 45-49,110,Yuri Karadzhov,106,,,DQ
M,Raw,B,Pro Master 45-49,90,Victor Babenko,90,155,155,1
M,Multi-ply,B,Pro Open,110,Sergei Polutin,102.5,,,DQ
M,Raw,B,Pro Open,110,Roman Sanotsky,106.7,180,180,1
M,Raw,B,Pro Open,125,Alexander Artemyev,115,155,155,1
