Place,WeightClassKg,Name,Equipment,Team,BodyweightKg,Squat1Kg,Squat2Kg,Squat3Kg,Best3SquatKg,Bench1Kg,Bench2Kg,Bench3Kg,Best3BenchKg,Deadlift1Kg,Deadlift2Kg,Deadlift3Kg,Best3DeadliftKg,TotalKg,Division,Sex,Event
1,60,Vegard Fatland,Single-ply,Hommersåk AK,59.90,110,-122.5,125,125.0,70,80,85,85.0,140,150,160,160.0,370,Teen 14-18,M,SBD
1,82.5,Tobias Osmundsen,Single-ply,Hommersåk AK,78.10,125,135,145,145.0,-100,100,107.5,107.5,130,137.5,145,145.0,397.5,Teen 14-18,M,SBD
1,90,Michael Hellestø,Single-ply,Hommersåk AK,89.90,180,190,200,200.0,135,145,-150,145.0,200,210,,210.0,555,Master 40-49,M,SBD
1,82.5,Sveinung Egeland,Single-ply,Hommersåk AK,79.20,170,180,185,185.0,120,125,-127.5,125.0,200,210,215,215.0,525,Master 50-59,M,SBD
