Division,WeightClassKg,Place,Name,Team,BodyweightKg,Best3SquatKg,Best3BenchKg,Best3DeadliftKg,TotalKg,Equipment,Event,Sex
Boys,52,1,David Carrasco,Big Lake Reagan County,50.17,149.69,79.38,165.56,394.63,Single-ply,SBD,M
Boys,52,2,Trey Wachsmann,Miles,51.26,129.27,65.77,129.27,324.32,Single-ply,SBD,M
Boys,52,3,Trey Phillips,San Angelo Grape Creek,41.46,56.7,24.95,77.11,158.76,Single-ply,SBD,M
Boys,52,DQ,Isaac Sorrells,Eldorado,47.54,,,,,Single-ply,SBD,M
Boys,56,1,Ryan Folds,San Angelo Grape Creek,53.43,158.76,79.38,154.22,392.36,Single-ply,SBD,M
Boys,56,2,Nick Gomez,McCamey,54.43,136.08,79.38,140.61,356.07,Single-ply,SBD,M
Boys,56,3,Ramon Zubiate,Denver City,52.89,102.06,61.23,102.06,265.35,Single-ply,SBD,M
Boys,56,DQ,Raul Rey,Big Lake Reagan County,,,,,,Single-ply,SBD,M
Boys,60,1,Brad Gryder,Mertzon Irion County,59.51,156.49,88.45,147.42,392.36,Single-ply,SBD,M
Boys,60,2,David Corbin,San Angelo Grape Creek,56.97,142.88,77.11,147.42,367.41,Single-ply,SBD,M
Boys,60,3,Nick Wright #3,Iraan,59.6,72.57,45.36,90.72,208.65,Single-ply,SBD,M
Boys,60,DQ,Cade Cramer,Mertzon Irion County,58.88,,,,,Single-ply,SBD,M
Boys,60,DQ,Jonathan Hart,Forsan,59.87,104.33,,,,Single-ply,SBD,M
Boys,67.5,1,Oscar Narvaez,Mertzon Irion County,66.5,219.99,120.2,206.38,546.58,Single-ply,SBD,M
Boys,67.5,2,Anthony Olivares,Eldorado,62.05,181.44,102.06,174.63,458.13,Single-ply,SBD,M
Boys,67.5,3,Luis Morales,San Angelo Central,61.96,181.44,88.45,167.83,437.72,Single-ply,SBD,M
Boys,67.5,4,Aiden Fuentes,Ozona,66.32,156.49,88.45,163.29,408.23,Single-ply,SBD,M
Boys,67.5,5,Henry Ramos,Sonora,66.13,147.42,86.18,170.1,403.7,Single-ply,SBD,M
Boys,67.5,6,Gavin DeLeon,San Angelo Grape Creek,65.41,156.49,74.84,163.29,394.63,Single-ply,SBD,M
Boys,67.5,7,Alex Ayala,San Angelo Lake View,66.68,142.88,99.79,124.74,367.41,Single-ply,SBD,M
Boys,67.5,8,Zerik Lee,Lamesa Klondike,66.86,122.47,68.04,142.88,333.39,Single-ply,SBD,M
Boys,67.5,9,Marcus Perez,Ozona,61.14,122.47,61.23,131.54,315.25,Single-ply,SBD,M
Boys,67.5,DQ,Elias Luna,Eldorado,64.77,,,,,Single-ply,SBD,M
Boys,67.5,DQ,Bryce Munoz,Anson,61.6,,,,,Single-ply,SBD,M
Boys,67.5,DQ,Justice Sweeney,Big Lake Reagan County,66.59,,,,,Single-ply,SBD,M
Boys,75,1,Ivan Valverde,Denver City,74.84,176.9,106.59,185.97,469.47,Single-ply,SBD,M
Boys,75,2,Elijah Moser,Anson,74.21,156.49,88.45,183.7,428.64,Single-ply,SBD,M
Boys,75,3,Austin Barron,San Angelo Grape Creek,74.12,165.56,92.99,165.56,424.11,Single-ply,SBD,M
Boys,75,4,Javier Davila,Denver City,74.84,163.29,102.06,156.49,421.84,Single-ply,SBD,M
Boys,75,5,Justin Ortiz,Big Lake Reagan County,74.57,145.15,92.99,181.44,419.57,Single-ply,SBD,M
Boys,75,6,Frankie Villanueva,Eldorado,72.94,149.69,77.11,154.22,381.02,Single-ply,SBD,M
Boys,75,7,Austin Damian,Ozona,73.39,138.35,86.18,142.88,367.41,Single-ply,SBD,M
Boys,75,8,Joseph Delgado,Sonora,74.57,138.35,90.72,129.27,358.34,Single-ply,SBD,M
Boys,75,9,Teaggan DeLeon,San Angelo Grape Creek,72.39,115.67,77.11,127.01,319.78,Single-ply,SBD,M
Boys,75,10,James Christensen,San Angelo Lake View,72.03,192.78,,,192.78,Single-ply,S,M
Boys,75,11,Emannuel Sarabia,Ozona,70.03,174.63,,,174.63,Single-ply,S,M
Boys,75,12,Shay Smith,McCamey,70.67,172.37,,,172.37,Single-ply,S,M
Boys,75,DQ,Lazaro Rodriguez,Ozona,69.94,145.15,68.04,,,Single-ply,SBD,M
Boys,75,DQ,Anthony Perez,Ozona,72.94,190.51,122.47,,,Single-ply,SBD,M
Boys,75,DQ,Leroy Garcia,Miles,72.48,,,,,Single-ply,SBD,M
Boys,75,DQ,Kevin Yates,Christoval,,,,,,Single-ply,SBD,M
Boys,75,DQ,Adrian Pena,Ballinger,,,,,,Single-ply,SBD,M
Boys,75,DQ,Nick Reyes,Big Lake Reagan County,73.94,,,,,Single-ply,SBD,M
Boys,82.5,1,Caleb Wilson,Mertzon Irion County,80.74,238.14,124.74,226.8,589.67,Single-ply,SBD,M
Boys,82.5,2,Steban Flores,Ozona,79.56,195.04,156.49,201.85,553.38,Single-ply,SBD,M
Boys,82.5,3,Caleb Martinez,Ozona,81.92,195.04,122.47,174.63,492.15,Single-ply,SBD,M
Boys,82.5,4,Edgar Damian,Ozona,80.65,174.63,131.54,172.37,478.54,Single-ply,SBD,M
Boys,82.5,5,Justin Baez,Sonora,79.65,181.44,102.06,142.88,426.38,Single-ply,SBD,M
Boys,82.5,6,Issahia Valenzuela,Big Lake Reagan County,80.74,149.69,81.65,147.42,378.75,Single-ply,SBD,M
Boys,82.5,7,Trey Brockman,Forsan,76.93,115.67,68.04,136.08,319.78,Single-ply,SBD,M
Boys,82.5,8,Munter Maynard,McCamey,78.29,142.88,,,142.88,Single-ply,S,M
Boys,82.5,DQ,Aaron Mendoza,Denver City,,,,,,Single-ply,SBD,M
Boys,90,1,Cade Barkowsky,Lamesa Klondike,89.54,188.24,124.74,201.85,514.83,Single-ply,SBD,M
Boys,90,2,Zach Burnett,Garden City,89.36,188.24,115.67,208.65,512.56,Single-ply,SBD,M
Boys,90,3,Nico Ortiz,Big Lake Reagan County,89.54,206.38,108.86,190.51,505.76,Single-ply,SBD,M
Boys,90,4,Luke Smith,Lamesa Klondike,88.99,190.51,97.52,213.19,501.22,Single-ply,SBD,M
Boys,90,5,Eduardo Marin,Anson,83.82,201.85,106.59,183.7,492.15,Single-ply,SBD,M
Boys,90,6,Shawn Rodriguez,San Angelo Lake View,82.55,197.31,108.86,172.37,478.54,Single-ply,SBD,M
Boys,90,7,Kodee Warriner,Big Lake Reagan County,86.18,188.24,95.25,188.24,471.74,Single-ply,SBD,M
Boys,90,8,Trey Ortiz,Big Lake Reagan County,86.73,192.78,113.4,156.49,462.66,Single-ply,SBD,M
Boys,90,9,Chris Smith,San Angelo Grape Creek,83.46,151.95,79.38,165.56,396.89,Single-ply,SBD,M
Boys,90,10,Luis Ontiveros,Denver City,86.36,222.26,,,222.26,Single-ply,S,M
Boys,90,11,Luke Arana,McCamey,87.45,165.56,,,165.56,Single-ply,S,M
Boys,90,DQ,Xavier Rodriguez,Anson,,,,,,Single-ply,SBD,M
Boys,100,1,JD Esquivel,Big Lake Reagan County,99.34,276.69,138.35,267.62,682.66,Single-ply,SBD,M
Boys,100,2,John Daniel Lopez,San Angelo Central,99.79,201.85,145.15,208.65,555.65,Single-ply,SBD,M
Boys,100,3,Brandon Lancaster,Ballinger,92.99,210.92,113.4,229.06,553.38,Single-ply,SBD,M
Boys,100,4,Angel Gallegos,Big Lake Reagan County,98.43,231.33,115.67,204.12,551.11,Single-ply,SBD,M
Boys,100,5,Christian Ramon,Sonora,97.43,204.12,136.08,172.37,512.56,Single-ply,SBD,M
Boys,100,6,Damian Pena,Denver City,90.72,174.63,113.4,188.24,476.27,Single-ply,SBD,M
Boys,100,7,Luis Salas,Iraan,91.26,181.44,81.65,163.29,426.38,Single-ply,SBD,M
Boys,100,8,Michael Muniz,Iraan,92.62,161.03,88.45,172.37,421.84,Single-ply,SBD,M
Boys,100,9,Kobly Griffin,Anson,94.08,156.49,81.65,167.83,405.97,Single-ply,SBD,M
Boys,100,10,Aries Gilbert,Forsan,97.48,149.69,81.65,154.22,385.55,Single-ply,SBD,M
Boys,100,11,Nathaniel Whitmore,Forsan,91.72,145.15,81.65,142.88,369.68,Single-ply,SBD,M
Boys,100,DQ,Adam Velasco,Denver City,93.26,,,,,Single-ply,SBD,M
Boys,100,DQ,Cooper Graham,Anson,95.71,,,,,Single-ply,SBD,M
Boys,110,1,Tristan Ortiz,Big Lake Reagan County,109.59,319.78,138.35,229.06,687.19,Single-ply,SBD,M
Boys,110,2,Alexis Gonzalez,Denver City,108.05,238.14,172.37,226.8,637.3,Single-ply,SBD,M
Boys,110,3,Alex Lozano,Denver City,109.77,204.12,145.15,210.92,560.19,Single-ply,SBD,M
Boys,110,4,Travis Carter,Iraan,105.96,231.33,108.86,217.72,557.92,Single-ply,SBD,M
Boys,110,5,Chris Chappa,San Angelo Lake View,106.14,199.58,136.08,201.85,537.51,Single-ply,SBD,M
Boys,110,6,Adolph Medina,Ballinger,103.87,204.12,122.47,208.65,535.24,Single-ply,SBD,M
Boys,110,7,Israel DelaCruz,Anson,108.77,217.72,115.67,192.78,526.17,Single-ply,SBD,M
Boys,110,8,Emiliano Hernandez,Eldorado,109.23,192.78,95.25,226.8,514.83,Single-ply,SBD,M
Boys,110,9,Brady Herbst,Junction,102.06,192.78,127.01,183.7,503.49,Single-ply,SBD,M
Boys,110,10,Eddie Hernandez,Anson,104.51,192.78,90.72,185.97,469.47,Single-ply,SBD,M
Boys,110,11,Gerry Salazar,McCamey,103.42,154.22,99.79,167.83,421.84,Single-ply,SBD,M
Boys,110,DQ,Esrael Hernandez,San Angelo Lake View,103.87,142.88,68.04,,,Single-ply,SBD,M
Boys,110,DQ,Hunter Stelly,San Angelo Central,,,,,,Single-ply,SBD,M
Boys,110,DQ,Brandon Padilla,Anson,,,,,,Single-ply,SBD,M
Boys,125,1,Angel De Luna,Big Lake Reagan County,110.04,328.85,181.44,256.28,766.57,Single-ply,SBD,M
Boys,125,2,Divad Briones,Ballinger,115.21,272.16,172.37,204.12,648.64,Single-ply,SBD,M
Boys,125,3,Caden Williams,Forsan,118.21,229.06,113.4,204.12,546.58,Single-ply,SBD,M
Boys,125,4,Eutimio Ortega,Forsan,112.13,210.92,106.59,208.65,526.17,Single-ply,SBD,M
Boys,125,DQ,Donnie Bowers,San Angelo Central,123.83,267.62,136.08,,,Single-ply,SBD,M
Boys,125,DQ,Collin Gardner,Anson,114.31,,,,,Single-ply,SBD,M
Boys,125+,1,Julian Guerra,Sonora,125.37,240.4,183.7,215.46,639.57,Single-ply,SBD,M
Boys,125+,2,Bryndon Robles,Sonora,125.01,249.48,181.44,206.38,637.3,Single-ply,SBD,M
Boys,125+,3,Price Cooper,Lamesa Klondike,135.26,244.94,149.69,238.14,632.76,Single-ply,SBD,M
Boys,125+,4,Brycson Pineda,Forsan,132.9,274.42,117.93,224.53,616.89,Single-ply,SBD,M
Boys,125+,DQ,Taylor Elkins,Mertzon Irion County,139.16,226.8,,,,Single-ply,SBD,M
Boys,,DQ,Isaac Jimenez,San Angelo Lake View,,,,,,Single-ply,SBD,M
Boys,,DQ,Caleb Ramirez,San Angelo Lake View,,,,,,Single-ply,SBD,M
Boys,,DQ,Braden Jowers,San Angelo Lake View,,,,,,Single-ply,SBD,M
Boys,,DQ,Royce Garcia,San Angelo Lake View,,,,,,Single-ply,SBD,M
Boys,,DQ,David Luera,San Angelo Lake View,,,,,,Single-ply,SBD,M
