Place,WeightClassKg,Name,Equipment,Team,BodyweightKg,Squat1Kg,Squat2Kg,Squat3Kg,Best3SquatKg,Bench1Kg,Bench2Kg,Bench3Kg,Best3BenchKg,Deadlift1Kg,Deadlift2Kg,Deadlift3Kg,Best3DeadliftKg,TotalKg,Division,Sex,Event
1,72,Amrita Kaur,Raw,Alta AK,71.00,77.5,85,90,90.0,40,-42.5,-42.5,40.0,90,95,100,100.0,230,Open,F,SBD
1,93,Vebjørn Askeland,Raw,Alta AK,93.00,200,210,220,220.0,140,152.5,-160,152.5,230,240,-250,240.0,612.5,Junior 19-23,M,SBD
1,120,Bjørn Erik Opgård,Raw,Alta AK,106.60,190,200,207.5,207.5,130,-135,135,135.0,200,-215,-215,200.0,542.5,Open,M,SBD
1,74,Odd Inge Sandberg,Raw,Alta AK,71.10,130,140,-155,140.0,110,-112.5,-112.5,110.0,185,200,-210,200.0,450,Master 40-49,M,SBD
