Place,WeightClassKg,Name,Equipment,Team,BodyweightKg,Squat1Kg,Squat2Kg,Squat3Kg,Best3SquatKg,Bench1Kg,Bench2Kg,Bench3Kg,Best3BenchKg,Deadlift1Kg,Deadlift2Kg,Deadlift3Kg,Best3DeadliftKg,TotalKg,Division,Sex,Event
1,57,Hannah Sire Kristoffersen Noste,Raw,Øksfjord AK,54.90,90,95,-97.5,95.0,55,-57.5,-57.5,55.0,92.5,102.5,-105,102.5,252.5,Junior 19-23,F,SBD
1,84,Anna Emilie Engebretsen,Raw,TSI Styrkeløft,73.80,90,97.5,-102.5,97.5,45,-50,-50,45.0,107.5,-115,-115,107.5,250,Junior 19-23,F,SBD
1,83,Martin Stenersen,Raw,TSI Styrkeløft,79.10,170,180,-192.5,180.0,105,110,-115,110.0,175,-190,-200,175.0,465,Junior 19-23,M,SBD
1,83,Peer Bjaaland,Raw,Alta AK,82.70,80,90,,90.0,-95,95,100,100.0,105,120,,120.0,310,Master 60-69,M,SBD
