Place,Name,State,WeightClassKg,BodyweightKg,Age,Best3SquatKg,Best3BenchKg,Best3DeadliftKg,TotalKg,Sex,Division,Equipment,Event,Tested
DQ,Marylin Woodman,MO,67.5,64.7,33,,,100,,F,Open,Raw,SBD,Yes
1,Alex Johnson-Barroso,MO,90,89.3,24,155,110,197.5,462.5,M,Open,Raw,SBD,Yes
2,Nicholas Lewis,MO,90,90,28,137.5,115,175,427.5,M,Open,Raw,SBD,Yes
1,Robert Lee,MO,90,89.3,61,140,82.5,167.5,390,M,Master 60-64,Raw,SBD,Yes
1,Keegan Kendrick,MO,82.5,76.1,24,125,65,137.5,327.5,F,Open,Wraps,SBD,Yes
1,Travis Cross,MO,110,108.5,35,,180,,180,M,Submaster 35-39,Raw,B,Yes
1,Robert Lee,MO,90,89.3,61,,82.5,,82.5,M,Master 60-64,Raw,B,Yes
1,Bill Duncan,MO,140+,169.6,58,,147.5,,147.5,M,Master 55-59,Raw,B,Yes
1,Daniel Velasquez,MO,82.5,82.2,31,,,275,275,M,Open,Raw,D,Yes
